"id","title_de","title_en","permalink","text_de","text_en"
2,"Carbon Black",,"carbon-black","<p>Oftmals umgangssprachlich als Ruß bezeichnet, hat <em>Carbon Black</em> – also Industrieruß, wenig gemein mit dem bekannten, unerwünschten Nebenprodukt, das bei allen unvollständigen Verbrennungsvorgängen entsteht. Ruß, den man von rauchenden Schornsteinen oder aus den Auspuffanlagen älterer Automobile kennt, unterscheidet sich signifikant, von den unter strengen Qualitätsauflagen hergestellten Industrierußen.</p>
<p>Carbon Blacks werden, angepasst an die Anforderungen der Endverbraucher, durch verschiedene Herstellverfahren produziert. Durch den Einsatz definierter Rohstoffe, der gezielten Steuerung und Überwachung der Produktionsprozesse lassen sich reproduzierbare Qualitäten herstellen, die durch ihre Spezifikationen genau definiert sind.</p>
<p>Durch die vielfältigen Anforderungen der  Endanwendungen, ist ein breites Spektrum an Carbon Black Spezifikationen entstanden, welche die gewünschten Eigenschaften sicherstellen.</p>
<p>Durch unsere langjährige Marktkenntnis und die enge Zusammenarbeit mit verschiedenen Herstellern ist es uns möglich Ihnen geeignete Typen, aller Herstellungsverfahren in unterschiedlichen Präparationsformen anzubieten.</p>

<h3>Furnace Verfahren </h3>
<img src=""http://production.harold-scholz.de.s3.amazonaws.com/sg/carbon_black/furnace.jpg"" alt=""Carbon Black – Furnace Verfahren"" title="""" style=""float: left; margin: 0 10px 10px 0;""/>
<p>Beim Furnaceverfahren lässt sich die Entstehung der Carbon Black Partikel auf vielfältige Weise beeinflussen.</p>
<p>Es ist möglich, die Partikelgröße sowie die entstehende Partikelstruktur zu steuern.</p>
<p>Im Furnaceverfahren werden sowohl Gummi- als auch Pigmentrußtypen hergestellt. Daneben können Leitfähigkeitsruße mit besonders hoher Struktur erzeugt werden.</p>

<h3>Gasrußverfahren</h3>
<img src=""http://production.harold-scholz.de.s3.amazonaws.com/sg/carbon_black/gasruss.jpg"" alt=""Carbon Black – Gasruß Verfahren"" title="""" style=""float: left; margin: 0 10px 10px 0;""/>
<p>Beim Gasrußverfahren wird das Rohöl verdampft und zusammen mit einem Trägergas zu den Brennern geführt.</p>
<p>Die dadurch entstehenden Carbon Blacks können nicht gezielt in ihrer Struktur beeinflusst werden.</p>
<p>Im Gasrußverfahren werden heute überwiegend sehr feinteilige Pigmentruße hergestellt, die sich besonders durch ihren hohen Anteil sauerstoffhaltiger Oberflächengruppen auszeichnen.</p>

<h3>Flammrußverfahren </h3>
<img src=""http://production.harold-scholz.de.s3.amazonaws.com/sg/carbon_black/flammruss.jpg"" alt=""Carbon Black – Flammruss Verfahren"" title="""" style=""float: left; margin: 0 10px 10px 0;""/>
<p>Das älteste Verfahren zur Herstellung von Carbon Black bietet kaum Möglichkeiten, Einfluss auf die entstehenden Partikel zu nehmen.</p>
<p>Der Rohstoff wird in einer Pfanne verbrannt und der entstehende Flammruß abgeschieden.</p>
<p>Flammruß unterscheidet sich von anderen Carbon Black Typen durch sein breites Partikelgrößenspektrum. Dieses Verteilungsspektrum ist das Resultat aus den unterschiedlichen Verbrennungszonen innerhalb des Prozesses.</p>

<h3>Thermalruß Verfahren</h3>
<img src=""http://production.harold-scholz.de.s3.amazonaws.com/sg/carbon_black/thermalruss.jpg"" alt=""Carbon Black – Thermalruss Verfahren"" title="""" style=""float: left; margin: 0 10px 10px 0;""/>
<p>Durch die diskontinuierliche thermische Spaltung von Erdgas, entsteht  der Thermalruß.</p>
<p>Die Bildung von Thermalruß geht relativ langsam vonstatten. Dabei entstehen sehr grobteilige Ruße, die kaum Struktur aufweisen.</p>
<p>Thermalruße unterscheiden sich in ihrer Teilchengröße und im Strukturaufbau. Sie zeichnen sich weiterhin durch ihre besondere Reinheit aus.</p>

<h3>Produkteigenschaften und Lieferformen von Carbon Black </h3>
<p><img src=""http://production.harold-scholz.de.s3.amazonaws.com/sg/carbon_black/carbonblack-1.jpg"" alt=""Carbon Black"" title="""" /></p>

<h4>Primärteilchengröße</h4>
<img src=""http://production.harold-scholz.de.s3.amazonaws.com/sg/carbon_black/primaerteilchengroesse.jpg"" alt=""Carbon Black – Thermalruss Verfahren"" title="""" style=""float: left; margin: 0 10px 10px 0;""/>
<p>Primärteile bilden ein festverbundenes Aggregat aus, welches auch durch Dispergierung nicht zerteilt werden kann. Die Primärteilchengröße lässt keine direkte Aussage über die Aggregatgröße zu.</p>
<p>Die Teilchengröße hat neben dem Einfluss auf die resultierende Oberfläche des Teilchens</p>

<h4>Struktur</h4>
<img src=""http://production.harold-scholz.de.s3.amazonaws.com/sg/carbon_black/struktur.jpg"" alt=""Carbon Black – Thermalruss Verfahren"" title="""" style=""float: left; margin: 0 10px 10px 0;""/>
<p>Die Struktur beschreibt die Verzweigung die sich durch die Verbindung der Primärteilchen ergibt. Diese Struktur ist stabil und verändert sich beim Verarbeiten des Pigmentes nicht.</p>
<p>Durch das Zusammenspiel von Primärteilchengröße und Struktur ergibt sich die Oberfläche.</p>
<h4>Oberfläche (äussere)</h4>
<img src=""http://production.harold-scholz.de.s3.amazonaws.com/sg/carbon_black/oberflaeche-aussen.jpg"" alt=""Carbon Black – Oberfläche (äussere)"" title="""" style=""float: left; margin: 0 10px 10px 0;""/>
<p>Lorem ipsum dolor sit amet, consetetur sadipscing elitr, sed diam nonumy eirmod tempor invidunt ut labore et dolore magna aliquyam erat, sed diam voluptua.</p>
<h4>Oberfläche (Gesamt) </h4>
<img src=""http://production.harold-scholz.de.s3.amazonaws.com/sg/carbon_black/oberflaeche-gesamt.jpg"" alt=""Carbon Black – Oberfläche (Gesamt)"" title="""" style=""float: left; margin: 0 10px 10px 0;""/>
<p>Lorem ipsum dolor sit amet, consetetur sadipscing elitr, sed diam nonumy eirmod tempor invidunt ut labore et dolore magna aliquyam erat, sed diam voluptua.</p>


<h3>Präparationsformen</h3>

<div class=""box_item"">
  <img src=""http://production.harold-scholz.de.s3.amazonaws.com/sg/carbon_black/Granulat-pulver.jpg"" alt=""Carbon Black – Pulver"" title="""" style=""float: right; margin: 0 0 10px 10px;""/>
  <h4>Pulver</h4>
  <p>Carbon Black in Pulverform weist eine extreme Staubexposition auf und ist aus diesem Grund schwer zu handhaben. Trotz seiner Agglomerationsneigung lässt sich Pulverruß sehr einfach dispergieren.</p>
  <p>Nicht alle Typen können als Pulvervariante geliefert werden.</p>
</div>

<div class=""box_item"">
  <img src=""http://production.harold-scholz.de.s3.amazonaws.com/sg/carbon_black/Granulat-geperlt.jpg"" alt=""Carbon Black – Geperlt"" title="""" style=""float: right; margin: 0 0 10px 10px;""/>
  <h4>Geperlte Qualität</h4>

  <p>Carbon Black wird in einem nachgeschalteten Produktionsschritt in einem Drehrohr-Granulator geperlt. Dabei dient Wasser oder Öl, meist in Kombination mit einem Additiv, als Bindemittel.</p>
  <p>Geperlte Ware ist staubärmer als Pulver. Durch den Feinanteil, der bis zu 15% ausmachen kann, ist es aber weder fließfähig noch staubfrei.</p>
</div>

<div class=""box_item"">
  <img src=""http://production.harold-scholz.de.s3.amazonaws.com/sg/carbon_black/Granulat-spruehtrocken.jpg"" alt=""Carbon Black – Sprühtrocken"" title="""" style=""float: right; margin: 0 0 10px 10px;""/>
  <h4>Sprühgetrocknetes Granulat</h4>
  <p>Bei der Herstellung von Sprühgranulaten wird Carbon Black zu einer wässrigen Dispersion verarbeitet, die Partikel werden vollständig aufgeschlossen und mittels Additiven stabilisiert.</p>
  <p>Durch anschließende Sprühgranulation entsteht ein staubfreies, rieselfähiges Granulat (GrapaCarb), welches durch die Verwendung verschiedenster Additive an vielfältige Anforderungen angepasst werden kann. Durch diese Anpassungen kann eine  einfache Dispergierung im Anwendungsmedium gewährleistet werden</p>
</div>

<div class=""box_item"">
  <img src=""http://production.harold-scholz.de.s3.amazonaws.com/sg/carbon_black/Granulat-fluessig.jpg"" alt=""Carbon Black – Flüssig"" title="""" style=""float: right; margin: 0 0 10px 10px;""/>
  <h4>Flüssigpräparationen</h4>

  <p>Wasserbasierende Präparationen (Euronyl® CB) werden durch Vermahlung in Perlmühlen unter Verwendung verschiedenster Dispergier- und Netzmittel hergestellt.</p>
  <p>Sie sind abgestimmt auf verschiedenste Anwendungsgebiete und garantieren durch perfekte Dispergierung ein Höchstmaß an Effizienz.</p>
</div>

<h3>Anwendungsgebiete </h3>
<p>In <em>Klebstoffen</em> werden Carbon Black Pigmente verwendet um die Klebmassen  tiefschwarz einzufärben, leitfähig auszustatten und die Materialien alterungsbeständig gegenüber UV-Licht zu machen. Besonders im Bereich der Hightech-Klebstoffe und im Automobilbereich sind die Anforderungen an die Klebstoffe und die Carbon Blacks besonders hoch.</p>
<p>Im Bereich <em>Farben und Lacke</em> werden verschiedene Anforderungen an die Carbon Black Pigmente gestellt. Für Abtön- und Grundierlacke werden oft Flammruß Typen eingesetzt. Im Bereich der höherwertigen Coatings kommen Furnace- und Gasruße zum Einsatz.</p>
<p>Durch unsere große Produktauswahl finden wir für Sie für alle Anforderungen die passenden Carbon Black Typen.</p>
<p>Im Bereich der <em>Druckfarben</em> spielen die Carbon Black Pigmente eine große Rolle. Durch die Vielzahl an Rußtypen, die sich in Struktur, Partikelgröße und Öberflächenchemie unterscheiden, finden sich für jede Formulierung und alle Druckarten optimierte Carbon Black Pigmente.</p>
<p><em>Kunststoffe</em> lassen sich durch Carbon Black Pigmente in den gewünschten Grau- und Schwarztönen einfärben. Daneben kann durch den Einsatz von Carbon Black Pigmenten die photooxidative Zersetzung der Kunststoffe durch UV-Licht minimiert werden. Eine Antistatik- oder Leitfähigkeitsausstattung der Kunststoffe kann mittels hochstrukturiertem Furnace Carbon Black oder speziellen Hochleitfähigkeitsrußen erzielt werden. Besondere Anforderungen, die an Kunststoffe mit Lebensmittelkontakt gestellt werden, können mit speziellen Carbon Black Pigmenten erfüllt werden. Diese zeichnen sich durch besonders geringe PAK (pah) Werte und geringe Fremdstoffbelastung aus.</p>
<p>Vielfältige Verwendung finden Carbon Black Pigmente in <em>Metallurgischen Anwendungen</em>:
<p>In Refraktärmaterialien wird die Porendichte herabgesetzt. Zusätzlich haben Carbon Blacks eine reduzierende Wirkung gegenüber Schlacke, wodurch die Lebensdauer der Materialien verbessert wird.</p>
<p>Für spezielle Legierungen werden Carbon Blacks als Gießpulver und Abdeckmassen verwendet, wodurch  Schmierwirkung, thermische Isolation und die kontrollierte Freisetzung von Schlackebildnern gesteuert werden können.</p>
<p>Für diese besonderen Anwendungen spielt die Struktur sowie die Partikelgröße eine große Rolle. In speziellen Fällen ist es vorteilhaft, Carbon Blacks mit oxidischen Oberflächen, also Gasruße oder nachoxidierte Furnaceruße, einzusetzen.</p>
<p>Zur <em>Einfärbung von Papier</em> empfiehlt sich die Verwendung von vordispergiertem Carbon Black in Flüssigpräparationen (Euronyl® CB). Zur nuancierten Masseinfärbung im Pulp oder für die Strichfärbung bieten wir entsprechende Präparationen auf Basis von Furnace Pigment Black oder Gas Blacks mit besonders niedriger Partikelgröße für besondere Farbtiefe an. Zur Leitfähigkeitsaustattung bieten wir eine Reihe spezieller Carbon Blacks und Präparationen an, die auf diese Anforderung abgestimmt sind.</p>
<p>Flüssigpräparationen können anionisch oder kationisch stabilisiert geliefert werden.</p>
<p>Zur Einfärbung von <em>Technischen Textilien</em>, besonders für  Vliese, eigenen sich unsere speziell abgestimmten Flüssigpräparationen (Euronyl® CB). Diese bieten, je nach Anforderung, gezielt verbesserte UV- oder IR-Absorption, Leitfähigkeit oder nur eine besonders hohe Farbtiefe. Durch eine Vielzahl zur Verfügung stehender Additivsysteme kann die Verträglichkeit mit den eingesetzten Bindern angepasst werden, um systembedingte Agglomerationen und Unverträglichkeiten zu vermeiden.</p>

<h3>Downloads:</h3>
<ul>
  <li>Partikelgrößenverteilung</li>
  <li>Broschüre Euronyl CB</li>
  <li>Mögliche Zusatzinformationen von Präparationsformen</li>
</ul>

",
3,"Chromoxid",,"chromoxid",,
5,"Eisenoxid",,"eisenoxid","<p>Eisenoxidpigmente sind die weltweit am häufigsten eingesetzten Buntpigmente. Sie kommen in den Grundfarben Gelb (FeOOH), Schwarz (Fe<sub>3</sub>O<sub>4</sub>) und Rot (Fe<sub>2</sub>O<sub>3</sub>) vor, aber auch gemischt als Orange-, Beige- oder Brauntöne. Weltweit größter Hersteller von Eisenoxidpigmenten (Bayferrox&reg; und Colortherm&reg;) ist unser langjähriger Partner LANXESS mit der weltgrößten Eisenoxidproduktion in Krefeld-Uerdingen (Deutschland), Porto Feliz (Brasilien) und Schanghai (China).</p>
<h4>Herstellverfahren von Eisenoxidpigmenten</h4>
<p>Im Werk Krefeld-Uerdingen der Lanxess Deutschland GmbH befindet sich die weltgrößte Produktionsstätte von Eisenoxidpigmenten (Bayferrox&reg; und Colortherm&reg;). Hier betreibt Lanxess auch die weltweit einzige Produktion von Eisenoxidpigmenten nach dem nachhaltigen Laux-Verfahren. Der Laux-Prozess trägt entscheidend zu den einzigartigen Qualitätsmerkmalen der Colortherm&reg; und Bayferrox&reg;-Pigmente der Lanxess Deutschland GmbH bei. In diesem ressourcenschonenden Prozess wird in erster Linie schwarzes Eisenoxid hergestellt, das dann weiter in rotes Eisenoxidpigment umgesetzt werden kann. Zur Herstellung von gelben Eisenoxidpigmenten dienen in erster Linie das Fällungs- und das Penniman-Verfahren. Die drei Verfahren zur Eisenoxid-Herstellung werden nachfolgend eingehend beschrieben.</p>
<br>
<h3>Das Laux-Verfahren</h3>

<div align=""center""><img src=""http://production.harold-scholz.de.s3.amazonaws.com/sg/eisenoxidpigmente/Laux-Verfahren.gif"" alt=""Das Laux-Verfahren"" style=""margin: 20px auto;""></div>

<table class=""chemical_table"">
  <tr>
    <td class=""label black"">Reaktion Schwarz:</td><td>9 Fe + 4 C<sub>6</sub>H<sub>5</sub>NO<sub>2</sub> + 4 H<sub>2</sub>O</td><td class=""arrow"">&nbsp;</td><td>3 Fe<sub>3</sub>O<sub>4</sub> + 4 C<sub>6</sub>H<sub>5</sub>NH<sub>2</sub>
  </tr>
  <tr>  
    <td class=""label yellow"">Reaktion Gelb:</td><td>2 Fe + C<sub>6</sub>H<sub>5</sub>NO<sub>2</sub> + 2 H<sub>2</sub>O</td><td class=""arrow"">&nbsp;</td><td >2 FeO(OH) + C<sub>6</sub>H<sub>5</sub>NH<sub>2</sub></td>
  </tr>
  <tr>
    <td class=""label red"">Reaktion Rot:</td><td>2 Fe<sub>3</sub>O<sub>4</sub> + ½ O<sub>2</sub></td><td class=""arrow"">&nbsp;</td><td>3 Fe<sub>2</sub>O<sub>3</sub></td>
  </tr>
</table>

<p>Das Laux-Verfahren diente ursprünglich ausschließlich zur Herstellung von Anilin (C<sub>6</sub>H<sub>5</sub>NH<sub>2</sub>) aus Nitrobenzol (C<sub>6</sub>H<sub>5</sub>NO<sub>2</sub>). Erst der Chemiker Dr. Laux entdeckte 1925, dass das bei dieser Reaktion anfallende Eisenoxid unter bestimmten chemischen Voraussetzungen als äußerst farbstarkes Eisenoxid-Pigment eingesetzt werden kann. Nach diesem Verfahren wird in erster Linie schwarzes Eisenoxid (z. B. Bayferrox&reg; Schwarz 330) hergestellt, es ist allerdings auch die Reaktion zu Eisenoxidgelb (z. B. Bayferrox&reg; Gelb 420) möglich. Aus schwarzem Eisenoxid kann in einem weiteren Reaktionsschritt rotes Eisenoxidpigment (z. B. Bayferrox&reg; Rot 110) erzeugt werden.</p>
<br>
<h3>Das Fällungsverfahren</h3>

<div align=""center""><img src=""http://production.harold-scholz.de.s3.amazonaws.com/sg/eisenoxidpigmente/F%C3%BCllungsverfahren.gif"" alt=""Das Füllungsverfahren"" style=""margin: 20px auto;""></div>

<table class=""chemical_table yellow"">
  <tr><td>2 FeSO<sub>4</sub> + 4 NaOH + ½ O<sub>2</sub></td><td class=""arrow"">Gelbkei</td><td>2 FeO(OH) + 2 Na<sub>2</sub>SO<sub>4</sub> + H<sub>2</sub>O</td></tr>
</table>
<p>Beim Fällungsverfahren wird Eisensulfat im alkalischen Milieu mit Luftsauerstoff zu gelbem Eisenoxidpigment (Bayferrox&reg; Gelb 920) oxidiert. Auch hier ist, wie beim Penniman-Verfahren, die Anwesenheit von Gelbkeim-Pigmenten erforderlich, damit qualitativ hochwertige Gelbpigmente entstehen können.</p>

<h3>Das Peniman-Verfahren</h3>

<div align=""center""><img src=""http://production.harold-scholz.de.s3.amazonaws.com/sg/eisenoxidpigmente/Peniman-Verfahren.gif"" alt=""Das Peniman-Verfahren"" style=""margin: 20px auto;""></div>
<table class=""chemical_table yellow"">
  <tr>
    <td>2 Fe + ½ O<sub>2</sub> + 3 H<sub>2</sub>O</td><td class=""arrow"">Eisensulfat</td><td>2 FeO(OH) + 2 H<sub>2</sub></td>
  </tr>
</table>
<p>
Beim Penniman-Verfahren wird Eisenschrott im schwefelsauren Medium unter Einwirkung von Luftsauerstoff zu gelbem Eisenoxid (Bayferrox&reg; Gelb 920) oxidiert. Eisensulfat dient hierbei als Katalysator. Damit qualitativ hochwertige Gelbpigmente entstehen, ist zudem die Anwesenheit von Gelbkeimen notwendig.</p>

<h3>Produkteigenschaften und Lieferformen von Eisenoxidpigmenten</h3>
<p>Die synthetisch hergestellten Eisenoxidpigmente der Colortherm&reg;- und Bayferrox&reg;-Reihe sind in 5 verschiedenen Lieferformen als Pulver, mikronisiertes Pulver, Granulat, Compact-Pulver oder als flüssige Pigmentpräparation erhältlich. Diese qualitativ hochwertigen Farbpigmenten kommen in vielen verschiedenen Industrien zum Einsatz.</p> 

<div class=""box_item"">
  <img src=""http://production.harold-scholz.de.s3.amazonaws.com/sg/eisenoxidpigmente/pulver_pigmente.jpg"" style=""float:right; margin: 0 0 10px 10px;"" alt=""Eisenoxidpigmente: Pulver Pigmente"">
   <h4>Pulver Pigmente</h4>
  <p>Pulver Pigmente sind immer feste Stoffe, die in ihrer einfachsten Form als Pulver vorliegen und unlöslich sind. Diese werden vorwiegend in der Bauindustrie verwendet.</p>
</div>


<div class=""box_item"">
  <h4>Mikronisierte Pulverpigmente</h4>
  <p>Mikronisierte Pulverpigmente zeichnen sich dadurch aus, dass durch eine Mahlung die Pigmentaggregate reduziert wurden. Durch eine besonders gute Dispergierbarkeit bei der Verarbeitung ist diese Lieferform besonders in der Farbe und Lack-Industrie von Vorteil.</p>  
</div>

<div class=""box_item"">
  <img src=""http://production.harold-scholz.de.s3.amazonaws.com/sg/eisenoxidpigmente/compact_pulver.jpg"" style=""float:right; margin: 0 0 10px 10px;"" alt=""Eisenoxidpigmente: Compact Pulver"">
  <h4>Compact-Pulver</h4>
  <p>Compact-Pulver ist eine kompaktierte, staubarme, fließfähige Pigmentform, die hauptsächlich zur Baustoffeinfärbung verwendet wird.</p>
</div>

<div class=""box_item"">
  <img src=""http://production.harold-scholz.de.s3.amazonaws.com/sg/eisenoxidpigmente/granulate.jpg"" style=""float:right; margin: 0 0 10px 10px;"" alt=""Eisenoxidpigmente: Granulate"">
  <h4>Granulate</h4>
  <p>Granulate sind sprühgetrocknete und staubfreie Pigmente. Aufgrund des qualitativ hochwertigen Herstellungsverfahrens dieser sehr fließfähigen Granulattypen gelingt dem Anwender eine komfortable Entleerung von Silo-, Big Bag- und Sackware. Hierdurch ist eine verbesserte Dosierung möglich.</p>
</div>

<div class=""box_item"">
  <img src=""http://production.harold-scholz.de.s3.amazonaws.com/sg/eisenoxidpigmente/slurry.jpg"" style=""float:right; margin: 0 0 10px 10px;"" alt=""Eisenoxidpigmente: Flüssigfarben"">
  <h4>Flüssigfarben</h4>
  <p>Flüssigfarben sind stabilisierte wässrige Suspensionen von Eisenoxidpulver. Sie bieten dem Anwender durch eine staubfreie und saubere Dosierung eine leichte Handhabung.</p> 
</div>
",
17,"Flüssigfarben",,"flussigfarben","<p>Unter einer (Flüssigfarbe) Slurry versteht man im Ursprung eine Aufschlämmung von Pigment in Wasser.
Unter Zugabe von Additiven wie Netz- und Dispergiermittel, Rheologiemittel und Konservierungsmitteln wird aus der einfachen Aufschlämmung eine stabile Dispersion. 
</p>

<p>Die meisten anorganischen Pigmente, wie z.B. Eisenoxid, Chromoxidgrün, Cobaltblau, können in eine Slurry eingearbeitet und somit in die Form einer Flüssigfarbe überführt  werden. 
Die Einarbeitung erfolgt mittels geeigneter Dispergiergeräte, wie zum Beispiel eines Dissolvers. Hierbei werden die meist trocken in agglomerierter Form vorliegenden Pulverpigmente in der Slurry auf Primärteilchengröße gebracht. 
</p>  
<p>Durch die Formulierung in Kombination mit den verwendeten Additiven sind hohe Pigmentgehalte von in der Regel 50 – 60 % möglich, bei stabilen coloristischen und physikalischen Eigenschaften, sowie Sedimentations- und Lagersstabilität. 
In einer Slurry können beliebige anorganische Pigmente gemischt werden, sodaß gewünschte Mischfarbtöne bereits gebrauchsfertig vorliegen
</p>
<p>Die Vorteile der Verarbeitung im Gegensatz zu Pulverpigmenten liegen in der Staubreduzierung und guten Dosierbarkeit der Slurries.
</p>
<img src=""http://production.harold-scholz.de.s3.amazonaws.com/sg/fluessigfarben/fluessigfarben-1.jpg"" />
<br>
<br>
<h3>Spezifikationen</h3>
<p>Um eine gleichbleibend gute Qualität von Lieferung zu Lieferung auch in der Anwendung zu gewährleisten, werden zu jedem einzelnen Produkt entsprechende Spezifikationen definiert. Diese beinhalten sowohl farbmetrische Eigenschaften, wie dE* und relative Farbstärke, sowie physikalische Eigenschaften wie Viskosität, pH-Wert, Feststoffgehalt und Dichte.
</p>
<p>Die Spezifikationskonformität jeder einzelnen Charge der hergestellten Flüssigfarben wird durch die hauseigene Qualitätssicherung gewährleistet. (Zertifizierung nach DIN EN ISO 9001:2008) 
Basierend auf diesen Ergebnissen wird auf Wunsch ein chargenbezogenes Abnahmeprüfzeugnis erstellt.
</p>
<img src=""http://production.harold-scholz.de.s3.amazonaws.com/sg/fluessigfarben/fluessigfarben-2.jpg"" />
<br>
<br>
<h3>Hauptanwendungsgebiete</h3>
<p>Das Hauptanwendungsgebiet der Slurries liegt in der Einfärbung von zementär gebundenen Systemen wie Betonpflastersteine, Pflanzsteine, Betondachsteine, etc.
Für diese Flüssigfarben werden ausschließlich anorganische Pigmente verwendet, sodaß eine hohe Alkalibeständigkeit, sowie Licht- und Wetterechtheit gewährleistet ist.
</p>
<br>
<br>
<h3>Verpackung</h3>
<p>Als Verpackung stehen PE-Fässer verschiedener Füllmengen, Mehrwegcontainer (Ufo, MTC), Einwegcontainer (IBC) zur Verfügung. Ebenso ist ein Bezug im Tankwagen möglich.
</p>",
7,"Kasslerbraun",,"kasslerbraun",,
9,"Mischphasenpigmente",,"mischphasenpigmente","<p>Mit der Forderung nach höherer Lebensdauer und qualitativer Überlegenheit von Endprodukten, wachsen auch die Ansprüche an die Beständigkeit der Einfärbungen von Lacken, Kunststoffen, Baustoffen und keramischen Erzeugnissen und damit zugleich auch an die dafür eingesetzten Pigmente.</p>

<p>HEUCODUR® Mischphasen - Metalloxid - Pigmente wurden entwickelt, diesen gestiegenen Ansprüchen an die Qualität, besonders unter Berücksichtigung ökologischer Aspekte, gerecht zu werden. Die Bedeutung dieser Pigmentklasse ist einzigartig unter den Farbmitteln, da sie chemisch inert ist und dabei hohe Licht-, Wetter- und Chemikalienbeständigkeit aufweist.  Diese außergewöhnlichen Echtheiten liegen in einem Hochtemperaturprozess begründet, bei dem oberhalb von 800°C homogene Mischphasenpigmente geschaffen werden. HEUCODUR®-Pigmente sind sowohl für alle Arten von Beschichtungen (außer Druckfarben) als auch zur Einfärbung von Kunststoffen, Keramik und mineralischen/zementären Produkten geeignet.</p>

<h3>Herstellverfahren von Mischphasenpigmenten</h3>
<p>Die Herstellung von Rutil- und Spinell-Pigmenten erfolgt durch Reaktion von feinteiligen Metalloxiden, -hydroxiden oder -carbonaten in festem Zustand bei Temperaturen von 800 bis 1200°C. Der Brennprozess erfolgt entweder kontinuierlich in Drehrohr- oder Tunnelöfen oder diskontinuierlich in direkt befeuerten Herdwagen oder Trommelöfen. Nach dem Glühen erfolgt eine Vermahlung, um die gewünschten koloristischen Eigenschaften sowie eine einfache Verarbeitung beim Endanwender zu garantieren.</p>

<h3>Anwendung Anstrichstoffe</h3>
<h4>Rutil-Pigmente</h4>
<p>Gegenüber Eisenoxiden bieten Rutil-Pigmente aufgrund etwas reinerer Farbtöne den Vorteil breiterer koloristischer Möglichkeiten. Rutil-Pigmente zeichnen sich durch Unlöslichkeit, höchste chemische und thermische Beständigkeit und ausgezeichnete Licht- und Wetterechtheit aus. Sie sind besonders geeignet für den Einsatz in lufttrocknenden Systemen und Einbrennlacken sowie für Coil Coating- und Pulverlacke. Ein weiteres Anwendungsgebiet sind wässrige und lösemittelhaltige Fassadenfarben.</p>
<p>In Kombination mit hochwertigen organischen Gelb- und Rottönen kann aus diesen Produkten eine breite Skala von Farbtönen realisiert werden. Hierbei  liefern die Rutil-Pigmente das erforderliche Deckvermögen, während die Kombination mit organischen Pigmenten die erforderliche Brillanz ermöglicht.</p>

<h4>Spinell-Pigmente</h4>

<p>Die Echtheitseigenschaften der dem Spinell-Typ zuzuordnenden Kobaltpigmente sind hervorragend. Besonders hervorzuheben ist die hervorragende Chemikalienbeständigkeit sowie die ausgezeichnete Wetterechtheit, auch in starken Aufhellungen mit Titandioxid. In hellen Pastelltönen sind sie den bekannten organischen Blau- und Grünpigmenten überlegen.
Anwendungsgebiete sind z.B.  Coil Coating, Pulverlacke, Schwimmbadlacke/ -folien.</p>

<h3>Anwendung Kunststoffe</h3>

<p>Besonders hervorzuheben ist die allgemein hohe Beständigkeit ggü. aggressiven Chemikalien und Lösemitteln, ferner die hohe Migrationsbeständigkeit. Sie verhalten sich auch in großflächigen Spritzguss- und Extrusionsteilen aus Kunststoff völlig verzugsneutral, so dass sie besonders geeignet sind z.B. für die Einfärbung von Flaschenkästen.</p>

<h3>Anwendung Bau</h3>

<p>Durch ihre hohe Licht-, Wetter,- und Alkalibeständigkeit sind die Mischphasenpigmente prädestiniert für den Einsatz im Baubereich.
Im Bereich der Putze haben sich insbesondere die Nickeltitanate durch ihren brillanten Farbton, auch bei geringeren Einsatzmengen, durchgesetzt.
Für die Einfärbung  von blauen Fugenmassen, Pflastersteinen und Gipse sind ausschließlich Kobaltblaupigmente ohne Einschränkungen empfehlenswert. Leider verhindert ein vergleichsweise hoher Produktpreis oft die Anwendung in größerem Umfang.</p>

",
10,"Nussbeize",,"nussbeize",,
11,"Organische Pigmente",,"organische-pigmente","<p>Prinzipiell können organische Pigmente anhand ihrer chemischen Konstitution und ihrem Color-Index (C.I.) unterschieden werden.
Eine grobe Gliederung erfolgt hierbei in  Azo- und Nicht-Azo- (oder polycyclische) Pigmente.</p>

<p>Die Herstellung organischer Pigmente erfolgt durch zum Teil sehr aufwändige Produktionsverfahren, dessen Erklärung aufgrund der Komplexität und Vielfältigkeit der Pigmente hier den Rahmen sprengen würde.</p>
<img src=""http://production.harold-scholz.de.s3.amazonaws.com/sg/organische-pigmente/Organische%20Pigmente.jpg"">
<br>
<br>
<h4>Azopigmente: (exemplarisch)</h4>

<table class=""border"">
  <thead>
    <th>Monoazopigmente</th>
    <th>Disazokondensationspigmente</th>
  </thead>
  <tbody>
    <tr><td>C.I. Pigment Yellow 3</td><td>C.I. Pigment Yellow 93</td></tr>
    <tr><td>C.I. Pigment Yellow 74</td><td>C.I. Pigment Yellow 128</td></tr>
    <tr><td>C.I. Pigment Orange 1</td><td>C.I. Pigment Orange 31</td></tr>
    <tr><td>C.I. Pigment Orange 6</td><td>C.I. Pigment Red 166</td></tr>
    <tr><td>&nbsp;</td><td>  C.I. Pigment Red 242</td></tr>
</tbody></table>
<br>
<br>
<h4>Nicht-Azo-, bzw. Polyzyklische Pigmente</h4>

<table class=""border"">
  <thead>
    <th>Phthalocyanin</th>
    <th>Chinacridon</th>
    <th>Diketopyrrolopyrrol (DPP)</th>
    <th>Dioxazin (Carbazolviolett)</th>
  </thead>
  <tbody>
    <tr><td>C.I. Pigment Blue 15</td><td>C.I. Pigment Violet 19</td><td>C.I. Pigment Orange 71</td><td>C.I. Pigment Violet 23</td></tr>
    <tr><td>C.I. Pigment Blue 15:3</td><td>C.I. Pigment Red 122</td><td>C.I. Pigment Red 254</td>&nbsp;<td></td></tr>
    <tr><td>C.I. Pigment Green 7</td><td>C.I. Pigment Red 202</td><td>C.I. Pigment Red 255 </td>&nbsp;<td></td></tr>
  </tbody>
</table>

<p>Mit organischen Pigmenten lassen sich im Gegensatz zu anorganischen Pigmenten deutlich höhere Farbstärken und brillantere Farbtöne erzielen. Aufgrund der im Vergleich sehr geringen durchschnittlichen Teilchengröße benötigen organische Pigmente ein höheres Maß an Dispergierenergie und besitzen eine geringere Deckkraft und wirken deshalb transparenter. 
</p>
<p>Die Echtheitseigenschaften variieren zwischen den verschiedenen chemischen Klassen sehr stark und sind oft deutlich schlechter als die von anorganischen Pigmenten. 
Hier muß auf jeden Fall zur Selektion geeigneter Pigmente eine individuelle Betrachtung vorgenommen werden. Das gilt sowohl für Licht- und Wetterechtheit, als auch für Lösemittel- und Migrationsbeständigkeit, Ausblühverhalten, Überlackierechtheit, Hitzebeständigkeit etc.
</p>",
12,"Titandioxid",,"titandioxid",,
13,"Ultramarinblau",,"ultramarinblau",,
14,"Wismuthvanadat",,"wismuthvanadat",,
15,"Euronox",,"euronox","<p>Euronoxe sind hochwertige, wässrige Pigmentpräparationen auf Basis anorganischer Pigmente.
In Form der verschiedenen Produktlinien stehen Formulierungen verschiedener Tensidtypen zur Verfügung. (siehe Übersicht).
Die verwendeten Konservierungsmittel sind frei von formaldehydhaltigen bzw. –bildenden Substanzen. </p>

<p>Durch die spezielle Formulierung in Kombination verschiedener Additive werden extrem hohe Pigmentgehalte zwischen von bis zu 70% erzielt, bei stabilen coloristischen und physikalischen Eigenschaften, sowie hervorragender Sedimentations- und Lagerstabilität. 
</p>
<p>Bei der Herstellung der Euronoxe gelten besonders hohe Qualitätsansprüche an Produktionsmittel und Rohstoffe, um die Verwendung in hochwertigen Anwendungen zu ermöglichen. Zum Beispiel kann hierdurch sichergestellt werden, daß Farbton und Farbstärke in einem sehr engen Toleranzbereich variieren.
Darüber hinaus sind Euronoxe sowohl gravimetrisch als auch volumetrisch dosierbar und somit für den Einsatz in Farbmischsystemen geeignet.
</p>
<p>Aufgrund der ausschließlichen Verwendung anorganischer Pigmente liegt die Licht- und Wetterechtheit der Euronoxe auf einem sehr hohen Niveau.
</p>
<p>Eine Vielzahl der Euronox-Präparationen entsprechen der RAL-UZ 102 und RAL-UZ 12a. Für einige Produkte liegen AgBB-Bewertungen vor.
</p>

<table class=""border"">
  <thead>
    <th>Produktlinie</th>
    <th>Tensidtyp</th>
    <th>Anwendungsgebiet</th>
    <th>Besonderheit</th>
  </thead>
  <tbody>
    <tr>
      <td>AR</td>
      <td>Anionisch</td>
      <td>Silikat-/silikonfarben, Kalkfarbe, Fassadenfarbe, Dekorpapier, Papier, Vlies</td>
      <td>Breite Verträglichkeit aufgrund der Verwendung nur sehr geringer Mengen an Netz- und Dispergiermitteln.</td>
    </tr>
    <tr>
      <td>LF2</td>
      <td>Nichtionisch</td>
      <td>Farbe & Lack, Schleifmittel</td>
      <td>Lösemittelfrei, VOC- und APEO-frei gemäß RAL-UZ 102, sehr breite Verträglichkeit in einer Vielzahl von Systemen</td>
    </tr>
    <tr>
      <td>TX</td>
      <td>Nichtionisch</td>
      <td>Technische Textilien, Vlies</td>
      <td>Besonders gut verträglich im Textilbereich</td>
    </tr>
    <tr>
      <td>UP / UP1</td>
      <td>Nichtionisch, anionisch</td>
      <td>Wäßrige und lösemittelhaltige Systeme</td>
      <td>Systempasten mit außergewöhnlich geringem Toleranzbereich in Farbton und Farbstärke. VOC- und APEO-frei gemäß RAL-UZ 102 und RAL-UZ 12a, erfüllt die Anforderungen gemäß AgBB</td>
    </tr>
    <tr>
      <td>PI / MA</td>
      <td>Anionisch, nichtionisch</td>
      <td>Wäßrige Druckfarben, Tissue, Papiereinfärbung.</td>
      <td>Besonders gute Retentionseigenschaften im Dekorbereich.</td>
    </tr>
    <tr>
      <td>TiO2</td>
      <td>Anionisch, nichtionisch, kationisch</td>
      <td>z.B. Farbe & Lack, Papier, Textil, Vlies, Latex, Schleifmittel, WPC, zementär gebundene Systeme</td>
      <td>Individuelle Präparationen für zahlreiche Anwendungen</td>
    </tr>
  </tbody>
</table>

<img src=""http://production.harold-scholz.de.s3.amazonaws.com/sg/euronox/Euronox.jpg"" />
<br>
<br>
<h3>Spezifikationen</h3>
<p>Um eine gleichbleibend gute Qualität von Lieferung zu Lieferung auch in der Anwendung zu gewährleisten, werden zu jedem einzelnen Produkt entsprechende Spezifikationen definiert. Diese beinhalten sowohl farbmetrische Eigenschaften, wie dE* und relative Farbstärke, sowie physikalische Eigenschaften wie Viskosität, pH-Wert und Dichte.
Dabei ist über die Standardprüfungen hinaus eine individuelle Prüfung nach Kundenmethode bzw. im Kundenmedium möglich.
</p>
<p>Die Spezifikationskonformität jeder einzelnen Charge der Euronoxe wird durch die hauseigene Qualitätssicherung gewährleistet. (Zertifizierung nach DIN EN ISO 9001:2008) 
Basierend auf diesen Ergebnissen wird auf Wunsch ein chargenbezogenes Abnahmeprüfzeugnis erstellt.
 </p>
 <img src=""http://production.harold-scholz.de.s3.amazonaws.com/sg/euronox/Euronox-1.jpg"" />
<br>
<br>
<h3>Verpackung</h3>
<p>Als Verpackung für Euronyle stehen PE-Fässer verschiedener Füllmengen sowie Einwegcontainer (IBC) zur Verfügung. 
Ebenso können individuelle Kundenwünsche, wie zum Beispiel die Abfüllung von Kleinmengen in PE-Flasche oder Eimer realisiert werden.
</p>
 <img src=""http://production.harold-scholz.de.s3.amazonaws.com/sg/euronox/Euronox-2.jpg"" />",
6,"Euronyl",,"euronyl","<p>Euronyle sind hochwertige, wässrige Pigmentpräparationen auf Basis verschiedenster organischer Pigmente. 
In Form der verschiedenen Produktlinien stehen Formulierungen verschiedener Tensidtypen zur Verfügung. (siehe Übersicht)
Die verwendeten Konservierungsmittel sind frei von formaldehydhaltigen bzw. –bildenden Substanzen. </p>
<p>Durch die spezielle Formulierung in Kombination verschiedener Additive werden hohe Pigmentgehalte zwischen 30 und 45% erzielt, bei stabilen coloristischen und physikalischen Eigenschaften, sowie hervorragender Sedimentations- und Lagerstabilität. Aus der Verwendung organischer Pigmente resultieren äußerst intensive und brillante Farbtöne.</p>
<p>Bei der Herstellung der Euronyle gelten besonders hohe Qualitätsansprüche an Produktionsmittel und Rohstoffe um die Verwendung in hochwertigen Anwendungen zu ermöglichen. Zum Beispiel kann hierdurch sichergestellt werden, daß Farbton und Farbstärke in einem sehr engen Toleranzbereich variieren.
Darüber hinaus sind Euronyle sowohl gravimetrisch als auch volumetrisch dosierbar und somit für den Einsatz in Farbmischsystemen geeignet.</p>
<p>Aufgrund der Beschaffenheit der eingesetzten organischen Pigmente variiert die Licht- und Wetterechtheit. Genauere Informationen erhalten Sie in der Farbkarte (im Downloadbereich) oder auf Anfrage.  </p>
<img src=""http://production.harold-scholz.de.s3.amazonaws.com/sg/euronyl/Euronyl.jpg"">

<br>
<br>
<h3>Übersicht</h3>

<table class=""border"">
  <thead>
    <th>Produktlinie</th>
    <th>Tensidtyp</th>
    <th>Anwendungsgebiet</th>
    <th>Besonderheit</th>
  </thead>
  <tr>
    <td>LF2</td>
    <td>nichtionisch</td>
    <td>Farbe & Lack, Schleifmittel</td>
    <td>Lösemittelfrei, VOC- und APEO-frei gemäß RAL-UZ 102, sehr breite Verträglichkeit in einer Vielzahl von Systemen</td></tr>
  <tr>
    <td>TX</td>
    <td>Nichtionisch</td>
    <td>Technische Textilien, Vlies</td>
    <td>Besonders gut verträglich im Textilbereich</td>
  </tr>
  <tr>
    <td>UP / UP1</td>
    <td>Nichtionisch, anionisch</td>
    <td>Wäßrige und lösemittelhaltige Systeme</td>
    <td>Systempasten mit außergewöhnlich geringem Toleranzbereich in Farbton und Farbstärke. VOC- und APEO-frei gemäß RAL-UZ 102 und RAL-UZ 12a, erfüllt die Anforderungen gemäß AgBB</td>
  </tr>
  <tr>
    <td>PI / MA</td>
    <td>Anionisch, nichtionisch</td>
    <td>Wäßrige Druckfarben, Tissue, Papiereinfärbung. </td>
    <td>Besonders gute Retentionseigenschaften im Dekorbereich. Einzelne Farbtöne für Lebensmittelverpackungen geeignet. (Bfr XXXVI)</td>
  </tr>
  <tr>
    <td>IJ</td>
    <td>Nichtionisch</td>
    <td>Jet Prining, Piezo Ink-Farben</td>
    <td>Sehr geringe und enge Teilchengrößenverteilung. Breite Verträglichkeit mit einer Vielzahl unterschiedlicher Ink-Jet-Basen. </td>
  </tr>
  <tr>
    <td>CB</td>
    <td>Nichtionisch und/oder anionisch</td>
    <td>Farbe & Lack, Papier, Latex, technische Textilien, Vlies, …</td>
    <td>Eine Vielzahl verschiedener Präparationen auf Basis von Pigmentrußen für ein breites Anwendungsspektrum.</td>
  </tr>
</table>
<img src=""http://production.harold-scholz.de.s3.amazonaws.com/sg/euronyl/Euronyl-1.jpg"">

<br>
<br>
<h3>Spezifikationen</h3>
<p>Um eine gleichbleibend gute Qualität von Lieferung zu Lieferung auch in der Anwendung zu gewährleisten, werden zu jedem einzelnen Produkt entsprechende Spezifikationen definiert. Diese beinhalten sowohl farbmetrische Eigenschaften, wie dE* und relative Farbstärke, sowie physikalische Eigenschaften wie Viskosität, pH-Wert und Dichte.
Dabei ist über die Standardprüfungen hinaus eine individuelle Prüfung nach Kundenmethode bzw. im Kundenmedium möglich.
</p>
<p>Die Spezifikationskonformität jeder einzelnen Charge der Euronyle  wird durch die hauseigene Qualitätssicherung gewährleistet. (Zertifizierung nach DIN EN ISO 9001:2008) 
Basierend auf diesen Ergebnissen wird auf Wunsch ein chargenbezogenes Abnahmeprüfzeugnis erstellt.</p>
<img src=""http://production.harold-scholz.de.s3.amazonaws.com/sg/euronyl/Euronyl-2.jpg"">
<br>
<br>
<h3>1.4 Verpackung</h3>
<p>Als Verpackung für Euronyle stehen PE-Fässer verschiedener Füllmengen sowie Einwegcontainer (IBC) zur Verfügung. Ebenso können individuelle Kundenwünsche, wie zum Beispiel die Abfüllung von Kleinmengen in PE-Flasche oder Eimer realisiert werden. 
</p>
<img src=""http://production.harold-scholz.de.s3.amazonaws.com/sg/euronyl/Euronyl-3.jpg"">",
8,"Lohnfertigung","Toll manufacturing","lohnfertigung","<h3>Sie möchten nicht selbst produzieren?<br>Die Produktion übernehmen wir für Sie!</h3><p>Wir stellen Ihnen, neben unserem Know-How und unserer langjährigen Erfahrung, auch unseren Maschinenpark sowie unsere Logistik als Fullservice-Dienstleister zur Verfügung. Eine schnelle Anpassung der Prozesstechnik an unterschiedlichste Aufgaben ermöglicht uns unter anderem folgendes Angebot:</p>
<ul class=""bereich_2_square"">
<li>Produktion diverser Slurries gemäß Kundenrezeptur</li><li>Formulierung: Hier verfügen wir über Anlagen zur Produktion von Suspensionskonzentraten und wasserdispergierbaren Pulvern.</li><li>Produktion diverser Farben und Präparationen (auf wässriger Basis)</li><li>Feinstvermahlung (&lt; 0,2µm) in diversen Medien (Wasser, MEG, Weichmacher wie z.B. DIDP, usw.)</li><li>Mischungen im Nass- und Trockenbereich</li><li>Konfektionierung in diverse Verpackungsformen</li><li>Lohngranulierung für unterschiedliche Anwendungsgebiete</li>
</ul>
<p>Unsere Seiten spiegeln nur einen Teil unserer Möglichkeiten wieder, bitte nehmen Sie Kontakt mit uns auf und schildern uns Ihre Aufgabenstellung.</p>","<h3>You do not want to produce yourself?<br>We will do the production for you!</h3><p>Beside our know-how and our longtime experience we also provide our machinery and logistics as a full service provider. Quick adaptation of process technology to diverse tasks enables us to offer among others the following:</p>
<ul class=""bereich_2_square"">
<li>Production of various slurries according to customer's recipe</li><li>Formulation: we have the equipment for the production of suspension concentrates and water dispersible powders</li><li>Production of various colours and preparations (water based)</li><li>Fine grinding (&lt; 0,2µm) in diverse media (water, MEG, plasticiser like DIDP for example, or others)</li><li>Wet and dry mixtures</li><li>Packaging in various kinds of packing</li><li>On demand and order granulation for various kinds of application.</li>
</ul>
<p>Our website only show a part of our possibilities; please contact us and let us know about your task.</p>"
18,"ROOFOLAN®","ROOFOLAN®","roofolanr","<p>Ein neues Produkt für die Einfärbung von Betondachsteinen und ähnlichen Produkten.</p>
<p>ROOFOLAN®, eine Acrylatdispersion zur Beschichtung von Betondachsteinen!</p>
<p>Erhältlich in allen gängigen Farbtönen der Dachsteinindustrie! Sonderfarben auf Wunsch ebenfalls lieferbar!</p>
<p>Gerne beraten wir Sie persönlich! Bitte nehmen Sie Kontakt mit uns auf!</p>
<p>Die nachfolgenden Farbkarten sind in der EDV nur annähernd darstellbar. Je nach technischer Ausstattung können die gezeigten Farbkarten von der Realität abweichen.</p>
<p>Hier finden Sie weitere Informationen zu Roofolan:</p>
<ul class=""anchor_list"">
<li><a href=""http://production.harold-scholz.de.s3.amazonaws.com/pdfs/roofolan/produktinfo.pdf"" class=""arrow_link bereich_2_arrow_e "" target="""">Produktinformation &amp; Datenblätter</a></li>
<li><a href=""http://production.harold-scholz.de.s3.amazonaws.com/pdfs/roofolan/farbtoene.pdf"" class=""arrow_link bereich_2_arrow_e "" target="""">Farbtonkarte der Standardtypen</a></li>
</ul>","<p>A new product for colouring concrete roof tiles and similar products.</p>
<p>ROOFOLAN® an acrylic dispersion for the coating of concrete roof tiles!</p>
<p>Available in all shades commonly used in the roof tile industry! Special shades also available on request!</p>
<p>We would like to provide our personal advice! Please get in contact with us! The following shade cards are only approximately representable in EDP medium, depending on technical equipment the shown shade cards may differ from reality.</p>
<p>Find further details on Roofolan here:</p>
<ul class=""anchor_list"">
<li><a href=""http://production.harold-scholz.de.s3.amazonaws.com/pdfs/roofolan/product_info.pdf"" class=""arrow_link bereich_2_arrow_e "" target="""">Product Information</a></li>
<li><a href=""http://production.harold-scholz.de.s3.amazonaws.com/pdfs/roofolan/datasheet.pdf"" class=""arrow_link bereich_2_arrow_e "" target="""">Data Sheets</a></li>
<li><a href=""http://production.harold-scholz.de.s3.amazonaws.com/pdfs/roofolan/farbtoene.pdf"" class=""arrow_link bereich_2_arrow_e "" target="""">Shade card showing standard shades</a></li>
</ul>"
